[
null,
{
	"ID": 1,
	"Name": "Woodworking",
	"IconID": 64,
	"ExpFormula": "10*level",
	"MaxLevel": 150,
	"Categories": ["Components", "Sculptures", "Special"],
	"Background": ""
},
{
	"ID": 2,
	"Name": "Alchemy",
	"IconID": 183,
	"ExpFormula": "10*level",
	"MaxLevel": 150,
	"Categories": ["Identifying", "Grinding", "Mixing"],
	"Background": ""
},
{
	"ID": 3,
	"Name": "Accessories",
	"IconID": 183,
	"ExpFormula": "10*level",
	"MaxLevel": 150,
	"Categories": ["Identifying", "Rings", "Capture Tools"],
	"Background": ""
},
{
	"ID": 4,
	"Name": "Clothing",
	"IconID": 183,
	"ExpFormula": "10*level",
	"MaxLevel": 150,
	"Categories": ["Components", "Clothing", "Misc"],
	"Background": ""
}
]