[
null,
{"id":1,"expanded":true,"name":"MAP001","order":1,"parentId":0,"scrollX":1394.6666666666667,"scrollY":1180.4444444444443},
{"id":2,"expanded":true,"name":"MAP002","order":2,"parentId":1,"scrollX":1012.4444444444445,"scrollY":546.6666666666666},
{"id":3,"expanded":false,"name":"MAP003","order":3,"parentId":1,"scrollX":1012.4444444444445,"scrollY":546.6666666666666}
]